<?xml version="1.0" encoding="iso-8859-1"?>
<!-- Generator: Adobe Illustrator 19.0.0, SVG Export Plug-In . SVG Version: 6.00 Build 0)  -->
<svg version="1.1" id="Capa_1" xmlns="http://www.w3.org/2000/svg" xmlns:xlink="http://www.w3.org/1999/xlink" x="0px" y="0px"
	 viewBox="0 0 512.001 512.001" style="enable-background:new 0 0 512.001 512.001;" xml:space="preserve">
<g>
	<g>
		<path d="M485.155,176.397c-11.648,0-21.183,7.726-26.191,21.206l-33.654,65.987c-7.441-4.891-16.406-5.529-25.718-0.831
			c-60.294,30.434-49.521,22.526-75.886,52.571c-6.298,7.231-14.821,20.722-17.945,31.032l-7.876,25.617
			c-4.553-0.52-4.784-0.572-5.795-0.572c-6.995,0-12.868,5.245-13.66,12.198c0.334-2.929-10.332,90.466-10.351,90.798
			c-0.341,5.491,1.198,11.255,5.156,15.379c6.861,7.148,14.153,5.81,38.428,5.81c4.141,0,7.497-3.357,7.497-7.497
			s-3.356-7.497-7.497-7.497c-24.224,0-26.115,0.36-27.611-1.198c-1.75-1.825-1.295-1.492,5.159-58.044
			c10.069,1.15,84.932,9.693,95.001,10.843l-4.831,42.349c-0.556,4.847-4.141,5.879-6.319,6.051h-26.413
			c-4.141,0-7.497,3.357-7.497,7.497c0,4.14,3.356,7.497,7.497,7.497h26.648c0.082,0,0.163-0.001,0.245-0.004
			c6.431-0.211,19.039-4.521,20.736-19.339c8.194-71.821,5.253-46.052,8.947-78.403c0.62-5.446-2.054-10.511-6.425-13.234
			c8.431-9.441,4.757-6.722,49.885-29.501c0.105-0.054,0.211-0.11,0.315-0.169c6.183-3.499,21.066-13.741,26.205-33.42
			c0.162-0.464,37.485-107.63,37.606-108.105C515.795,193.887,504.726,176.397,485.155,176.397z M385.912,417.304
			c-10.069-1.15-84.932-9.693-95.001-10.843l2.274-19.925c9.783,1.117,84.961,9.696,94.994,10.841c0.006,0.001,0,0,0.007,0.001
			L385.912,417.304z M496.353,209.428c-0.192,0.553-37.496,107.642-37.631,108.212c-3.63,14.056-14.346,21.534-18.961,24.174
			l-35.197,17.765c-8.753,4.419-13.802,9.347-15.566,11.261c-0.028,0.031-0.056,0.062-0.084,0.093l-0.378,0.424
			c-0.027,0.031-0.055,0.062-0.082,0.093l-8.807,9.863l-66.611-7.602c6.582-21.408,8.268-32.075,21.999-48.56
			c14.151-16.126,18.492-22.346,28.239-27.265c46.342-23.392,45.268-23.334,48.884-23.334c5.367,0,8.555,5.177,8.645,5.324
			c0.012,0.021,0.027,0.039,0.039,0.059c0.025,0.04,0.043,0.082,0.067,0.122c0.869,1.454,2.893,6.031,1.832,9.684
			c-0.234,0.805-0.945,3.254-5.438,5.522l-36.281,18.311c-3.696,1.865-5.18,6.375-3.314,10.071c1.318,2.613,3.958,4.12,6.698,4.12
			c1.137,0,2.289-0.259,3.373-0.806l36.28-18.311c8.61-4.346,11.892-10.501,13.131-14.899c1.942-6.901,0.164-13.456-1.504-17.509
			l36.833-72.217c0.984-1.939,4.541-15.362,16.38-12.076C498.823,195.199,497.23,205.789,496.353,209.428z"/>
	</g>
</g>
<g>
	<g>
		<path d="M240.596,474.149c-0.014-0.152-7.05-61.789-7.067-61.939l-3.265-28.601c-0.794-6.955-6.666-12.199-13.661-12.199
			c-0.521,0-1.048,0.03-1.567,0.089l-4.227,0.482c-7.45-24.229-9.459-37.202-25.725-56.537c-0.034-0.04-0.069-0.081-0.104-0.12
			l-15.712-17.904c-0.032-0.036-0.064-0.072-0.096-0.107c-0.292-0.32-7.265-7.899-17-12.811
			c-47.098-23.773-47.603-24.943-55.641-24.943c-5.043,0-9.358,1.615-12.833,3.83L53.113,197.73
			c-4.995-13.559-14.553-21.332-26.237-21.332c-18.276,0-30.97,16.195-25.657,37.024c0.035,0.139,0.075,0.277,0.118,0.413
			l34.131,107.613c5.119,19.731,20.032,29.995,26.223,33.498c0.104,0.059,0.208,0.115,0.315,0.169
			c43.938,22.177,41.276,19.858,49.885,29.5c-4.371,2.723-7.045,7.789-6.423,13.236c6.024,52.784,8.795,77.06,8.948,78.405
			c1.597,13.961,13.453,19.34,20.979,19.34h84.587C234.185,495.596,241.638,485.691,240.596,474.149z M68.929,341.813
			c-4.625-2.646-15.382-10.155-18.986-24.278c-0.045-0.175-0.084-0.307-0.124-0.434L15.7,209.522
			c-0.87-3.547-2.581-14.294,7.43-17.574c8.11-2.247,13.04,3.121,15.935,11.024c0.313,0.843-2.203-4.618,34.004,73.107
			c-5.462,13.076-1.762,25.846,11.559,32.57c39.311,19.841,37.201,19.118,39.653,19.118c7.828,0,10.436-10.632,3.384-14.192
			l-36.28-18.312c-4.493-2.268-5.204-4.716-5.438-5.521c-1.847-6.368,3.723-15.189,10.584-15.189c1.762,0,3.718,0.536,5.813,1.593
			l43.073,21.741c6.852,3.458,12.123,8.942,12.657,9.507c28.699,32.705,26.124,29.06,37.581,66.316l-66.611,7.602
			C111.703,361.891,118.738,366.954,68.929,341.813z M120.506,397.377c9.155-1.045,86.578-9.88,95.001-10.842l2.274,19.925
			c-10.069,1.15-84.932,9.693-95.001,10.843L120.506,397.377z M219.983,480.6h-84.351c-2.178-0.172-5.764-1.204-6.318-6.048
			l-4.833-42.352c10.069-1.15,84.932-9.693,95.001-10.843l6.168,54.04C225.734,479.277,224.494,480.6,219.983,480.6z"/>
	</g>
</g>
<g>
	<g>
		<path d="M464.123,142.484h-48.412c-4.141,0-7.497,3.357-7.497,7.497c0,4.14,3.356,7.497,7.497,7.497h48.412
			c4.141,0,7.497-3.357,7.497-7.497C471.62,145.841,468.264,142.484,464.123,142.484z"/>
	</g>
</g>
<g>
	<g>
		<path d="M455.478,70.751c-1.932-3.663-6.471-5.062-10.13-3.129L402.54,90.225c-3.662,1.933-5.062,6.469-3.129,10.13
			c1.932,3.662,6.469,5.062,10.13,3.13l42.808-22.604C456.011,78.947,457.411,74.412,455.478,70.751z"/>
	</g>
</g>
<g>
	<g>
		<path d="M94.653,142.484H46.242c-4.14,0-7.497,3.357-7.497,7.497c0,4.14,3.356,7.497,7.497,7.497h48.412
			c4.14,0,7.497-3.357,7.497-7.497C102.151,145.841,98.794,142.484,94.653,142.484z"/>
	</g>
</g>
<g>
	<g>
		<path d="M107.823,90.224l-42.81-22.602c-3.663-1.933-8.197-0.533-10.13,3.129c-1.933,3.662-0.532,8.197,3.129,10.13
			c46.457,24.53,43.736,23.472,46.304,23.472C112.082,104.353,114.733,93.873,107.823,90.224z"/>
	</g>
</g>
<g>
	<g>
		<path d="M382.007,160.048c-4.095-0.576-7.888,2.294-8.456,6.396c-1.109,7.991-3.02,15.71-5.638,23.086
			c-10.966-2.857-22.177-5.263-33.591-7.237c1.537-10.447,2.332-21.281,2.332-32.312c0-11.032-0.795-21.865-2.332-32.312
			c11.417-1.973,22.626-4.379,33.592-7.236c2.616,7.375,4.527,15.094,5.637,23.085c0.569,4.102,4.375,6.968,8.456,6.396
			c4.101-0.569,6.965-4.355,6.396-8.457c-1.567-11.298-4.583-22.268-8.901-32.672c-0.03-0.079-0.053-0.16-0.085-0.238
			c-0.094-0.225-0.198-0.443-0.293-0.667c-0.499-1.178-1.011-2.349-1.542-3.511c-0.224-0.488-0.455-0.97-0.685-1.454
			c-0.36-0.763-0.729-1.521-1.104-2.278c-0.512-1.035-1.039-2.058-1.575-3.076c-0.223-0.421-0.443-0.844-0.671-1.263
			c-23.776-43.971-69.244-69.99-117.53-69.99c-0.001,0-0.001,0-0.001,0c-95.836,0-159.912,97.718-123.4,185.107
			c22.849,54.763,78.596,87.663,137.357,81.5c61.743-6.41,110.116-54.476,118.43-114.41
			C388.971,164.403,386.108,160.616,382.007,160.048z M208.916,41.061c-14.498,17.232-23.572,39.979-28.463,61.871
			c-10.307-1.777-20.435-3.919-30.356-6.442C162.598,71.838,183.455,52.114,208.916,41.061z M137.339,149.981
			c0-13.862,2.397-27.173,6.784-39.549c10.966,2.857,22.176,5.263,33.591,7.237c-1.537,10.447-2.332,21.28-2.332,32.312
			s0.795,21.865,2.331,32.312c-11.415,1.974-22.624,4.38-33.591,7.237C139.736,177.153,137.339,163.843,137.339,149.981z
			 M150.097,203.472c9.921-2.522,20.049-4.664,30.356-6.442c4.892,21.898,13.967,44.642,28.463,61.871
			C183.455,247.848,162.598,228.125,150.097,203.472z M248.52,267.86c-29.119-6.153-46.607-44.206-53.231-73.121
			c17.308-2.347,35.086-3.669,53.231-3.954V267.86z M248.52,175.789c-19.085,0.291-37.783,1.706-55.995,4.208
			c-1.414-9.681-2.148-19.743-2.148-30.016c0-10.272,0.734-20.334,2.148-30.016c18.211,2.502,36.909,3.918,55.995,4.208V175.789z
			 M248.52,109.175c-18.145-0.286-35.922-1.606-53.23-3.953c6.676-29.145,24.492-67.062,53.23-73.12V109.175z M361.924,96.495
			c-9.916,2.52-20.04,4.661-30.341,6.438c-3.795-16.986-9.642-32.613-17.361-45.93c-3.407-5.878-7.09-11.159-11.002-15.823
			C328.472,52.215,349.379,71.822,361.924,96.495z M263.514,32.101c14.001,2.972,27.184,14.22,37.735,32.421
			c6.821,11.768,12.039,25.602,15.498,40.701c-17.309,2.347-35.088,3.668-53.233,3.953V32.101z M263.514,124.173
			c19.086-0.291,37.785-1.706,55.998-4.208c1.413,9.681,2.147,19.744,2.147,30.016c0,10.272-0.734,20.334-2.147,30.016
			c-18.214-2.502-36.912-3.917-55.998-4.208V124.173z M263.514,267.86v-77.075c18.145,0.286,35.924,1.606,53.233,3.955
			C310.062,223.919,292.452,261.719,263.514,267.86z M303.218,258.783c14.439-17.216,23.484-39.913,28.363-61.753
			c10.302,1.776,20.426,3.918,30.342,6.438C349.379,228.141,328.472,247.747,303.218,258.783z"/>
	</g>
</g>
<g>
</g>
<g>
</g>
<g>
</g>
<g>
</g>
<g>
</g>
<g>
</g>
<g>
</g>
<g>
</g>
<g>
</g>
<g>
</g>
<g>
</g>
<g>
</g>
<g>
</g>
<g>
</g>
<g>
</g>
</svg>
