<?xml version="1.0" encoding="utf-8"?>
<!-- Generator: Adobe Illustrator 21.1.0, SVG Export Plug-In . SVG Version: 6.00 Build 0)  -->
<svg version="1.1" id="Capa_1" xmlns="http://www.w3.org/2000/svg" xmlns:xlink="http://www.w3.org/1999/xlink" x="0px" y="0px"
	 viewBox="0 0 512 512" style="enable-background:new 0 0 512 512;" xml:space="preserve">
<style type="text/css">
	.st0{fill:#A0A0A0;}
</style>
<g>
	<g>
		<path class="st0" d="M510.4,78l-12.3-29.5c-3.3-7.8-10.9-12.9-19.4-12.9c-2.8,0-5.5,0.5-8.1,1.6l-9.3,3.9
			c-7.4,3.1-12.1,9.9-12.8,17.5l-226,94.2L207,115.4c6.9-5.7,9.6-15.5,6-24.2l-3.9-9.3c-4.5-10.8-16.8-15.7-27.4-11.3L36.2,131.2
			c-5.2,2.2-9.2,6.2-11.3,11.4c-3.9,9.5,0,15.9,3.9,25.4c3.6,8.6,12.3,13.7,21.5,12.8l51.2,122.7c-6.9,5.7-9.7,15.5-6,24.2l3.9,9.3
			c4.5,10.8,16.8,15.7,27.4,11.3l145.4-60.6c5.2-2.2,9.2-6.2,11.3-11.4c3.9-9.5,0-15.9-3.9-25.4c-3.6-8.6-12.3-13.7-21.5-12.8
			l-15.6-37.3l94.2-39.3c3.8-1.6,5.6-6,4-9.8c-1.6-3.8-6-5.6-9.8-4L236.8,187c-3.1-7.5-5.3-12.8-8.5-20.3l223.8-93.3l8.5,20.3
			l-97.3,40.5c-3.8,1.6-5.6,6-4,9.8c1.6,3.8,6,5.6,9.8,4l99.8-41.6c5.8,4.5,13.8,5.8,21,2.8l9.3-3.9C509.8,101,514.8,88.7,510.4,78z
			 M42.7,162.2l-3.9-9.3c-1.3-3,0.2-6.5,3.2-7.8c155.7-64.9,146-61.1,147.7-61.1c2.4,0,4.6,1.4,5.5,3.7l3.9,9.3
			c1.3,3-0.2,6.5-3.2,7.8c-0.7,0.3-143.4,59.8-145.4,60.6C47.4,166.7,44,165.2,42.7,162.2z M265.7,256.7l3.9,9.3
			c1.3,3-0.2,6.5-3.2,7.8c-155.7,64.9-146,61.1-147.7,61.1c-2.4,0-4.6-1.4-5.5-3.7l-3.9-9.3c-1.3-3,0.2-6.5,3.2-7.8
			c0.3-0.1,1-0.4,1.3-0.5L256.6,254C260.8,251.8,264.4,253.6,265.7,256.7z M243.9,243.1l-129,53.8L64.5,175.8l129-53.8L243.9,243.1z
			 M493.3,91.6l-9.3,3.9c-3.1,1.3-6.6-0.2-7.8-3.2c-12.8-30.8-12.4-29.7-12.7-30.7c-0.6-2.7,0.8-5.6,3.6-6.7
			c10.3-4.3,10.1-4.4,11.6-4.4c2.4,0,4.6,1.4,5.5,3.7l12.3,29.5C497.8,86.8,496.4,90.3,493.3,91.6z"/>
	</g>
</g>
<g>
	<g>
		<path class="st0" d="M320.6,404.7h-7.1c0.9-3.2,0.7-4.4,0.7-14.6c0-11.1-9-20.1-20.1-20.1H55.8c-11.1,0-20.1,9-20.1,20.1
			c0,10.4-0.2,11.3,0.7,14.6h-7.1C13.1,404.7,0,417.9,0,434v34.9c0,4.1,3.4,7.5,7.5,7.5h150c4.1,0,7.5-3.4,7.5-7.5s-3.4-7.5-7.5-7.5
			H15V434c0-7.9,6.4-14.3,14.3-14.3c7.4,0,283.2,0,291.3,0c7.9,0,14.3,6.4,14.3,14.3v27.4H192.5c-4.1,0-7.5,3.4-7.5,7.5
			s3.4,7.5,7.5,7.5h150c4.1,0,7.5-3.4,7.5-7.5V434C349.9,417.9,336.8,404.7,320.6,404.7z M299.2,399.6c0,2.8-2.3,5.1-5.1,5.1H55.8
			c-2.8,0-5.1-2.3-5.1-5.1v-9.5c0-2.8,2.3-5.1,5.1-5.1h238.2c2.8,0,5.1,2.3,5.1,5.1V399.6z"/>
	</g>
</g>
</svg>
