<?xml version="1.0" encoding="utf-8"?>
<!-- Generator: Adobe Illustrator 21.1.0, SVG Export Plug-In . SVG Version: 6.00 Build 0)  -->
<svg version="1.1" id="Capa_1" xmlns="http://www.w3.org/2000/svg" xmlns:xlink="http://www.w3.org/1999/xlink" x="0px" y="0px"
	 viewBox="0 0 512 512" style="enable-background:new 0 0 512 512;" xml:space="preserve">
<style type="text/css">
	.st0{fill:#A0A0A0;}
</style>
<g>
	<g>
		<path class="st0" d="M491.7,281.6H491l-50.3-121.5c12.3-14.8,5-37.3-13.4-42.4L294,81.3c-2.8-6.2-7-11.5-12.2-15.7V46.3
			c0-14.6-11.9-26.4-26.4-26.4c-14.6,0-26.4,11.9-26.4,26.4v19.2c-5.2,4.2-9.4,9.6-12.2,15.7L83.4,117.8
			c-19,5.2-25.9,28.8-12.5,43.4L21,281.6c-12.9,0-21,9.8-21,20.3v7c0,11.2,9.1,20.3,20.3,20.3h5c27.4,46.6,94.9,46.5,122.3,0h5
			c11.2,0,20.3-9.1,20.3-20.3v-7c0-10.4-8.1-20.3-21-20.3l-47.5-114.7l124.6-34.1v245h-2.4c-10.5,0-19,8.5-19,19
			c0,10.3-0.1,11,0.4,13.6h-18.7c-11.2,0-20.3,9.1-20.3,20.3v13.9c-11,0.2-19.9,9.2-19.9,20.3v7c0,11.2,9.1,20.3,20.3,20.3h68.5
			c4.1,0,7.5-3.4,7.5-7.5s-3.4-7.5-7.5-7.5h-68.5c-2.9,0-5.3-2.4-5.3-5.3v-7c0-2.9,2.4-5.3,5.3-5.3c6.3,0,161.9,0,172.1,0
			c2.9,0,5.3,2.4,5.3,5.3v7c0,2.9-2.4,5.3-5.3,5.3h-68.5c-4.1,0-7.5,3.4-7.5,7.5s3.4,7.5,7.5,7.5h68.5c11.2,0,20.3-9.1,20.3-20.3v-7
			c0-11.1-8.9-20.1-19.9-20.3v-13.9c0-11.2-9.1-20.3-20.3-20.3h-18.7c0.5-2.5,0.4-3.1,0.4-13.6c0-10.5-8.5-19-19-19h-2.4V274
			c0-4.1-3.4-7.5-7.5-7.5s-7.5,3.4-7.5,7.5v103.7h-22.9V139.4c7.2,2.1,15.5,2.1,22.9,0V239c0,4.1,3.4,7.5,7.5,7.5s7.5-3.4,7.5-7.5
			V132.8l125.8,34.4l-47.4,114.4c-12.9,0-21,9.8-21,20.3v7c0,11.2,9.1,20.3,20.3,20.3h5c27.4,46.6,94.9,46.6,122.3,0h5
			c11.2,0,20.3-9.1,20.3-20.3v-7C512,290.7,502.9,281.6,491.7,281.6z M78.9,181.1v100.6H37.3L78.9,181.1z M44.6,330.4h83.7
			C106,355.5,66.8,355.5,44.6,330.4z M152.5,296.6C152.5,296.6,152.5,296.6,152.5,296.6c3,0,5.3,2.4,5.3,5.3v7
			c0,2.9-2.4,5.3-5.3,5.3H20.3c-2.9,0-5.3-2.4-5.3-5.3v-7c0-2.9,2.4-5.3,5.3-5.3C23.8,296.6,149.5,296.6,152.5,296.6z M135.6,281.6
			H93.9V181.1L135.6,281.6z M91.4,154.7c-2.8,0.3-5.1-0.5-7.5-1.9c-8.1-5.5-5.9-17.9,3.4-20.5L213,97.9c-0.1,7.5,1.8,15.3,5.8,22.1
			C87.4,156,93.1,154.5,91.4,154.7z M243.9,46.3L243.9,46.3c0-6.3,5.1-11.4,11.4-11.4c6.3,0,11.4,5.1,11.4,11.4v11.5
			c-7.4-2.1-15.6-2.1-22.9,0L243.9,46.3L243.9,46.3z M321.5,425.4c2.9,0,5.3,2.4,5.3,5.3v13.8H183.9v-13.8c0-2.9,2.4-5.3,5.3-5.3
			C195.7,425.4,316.4,425.4,321.5,425.4z M284.2,392.8c2.2,0,4,1.8,4,4v9.6c0,2.2-1.8,4-4,4h-57.7c-2.2,0-4-1.8-4-4v-9.6
			c0-2.2,1.8-4,4-4C233.4,392.8,277.4,392.8,284.2,392.8z M257.1,125.9c-10.6,0.7-20.4-4.8-25.6-13.8
			c-13.6-24.2,14.1-51.8,38.4-36.5C292.4,89.7,283.3,124.2,257.1,125.9z M433.1,181.1l41.7,100.6h-41.7V181.1z M291.8,120
			c4-7,5.9-14.5,5.8-22.1l125.6,34.4c6.1,1.7,9.7,8,8,14.1c-1.6,5.7-7.2,9.1-11.9,8.2c-0.7-0.1-1.3-0.2-2-0.1
			C416.6,154.2,293.2,120.4,291.8,120z M418.1,181.1v100.6h-41.7L418.1,181.1z M383.7,330.4h83.7
			C445.2,355.5,405.9,355.5,383.7,330.4z M497,308.9L497,308.9c0,2.9-2.4,5.3-5.3,5.3H359.4c-2.9,0-5.3-2.4-5.3-5.3v-7
			c0-2.9,2.4-5.3,5.3-5.3c3.5,0,123.5,0,126.5,0c0,0,0,0,0,0h5.7c2.9,0,5.3,2.4,5.3,5.3L497,308.9L497,308.9z"/>
	</g>
</g>
</svg>
