<?xml version="1.0" encoding="utf-8"?>
<!-- Generator: Adobe Illustrator 21.1.0, SVG Export Plug-In . SVG Version: 6.00 Build 0)  -->
<svg version="1.1" id="Capa_1" xmlns="http://www.w3.org/2000/svg" xmlns:xlink="http://www.w3.org/1999/xlink" x="0px" y="0px"
	 viewBox="0 0 512 512" style="enable-background:new 0 0 512 512;" xml:space="preserve">
<style type="text/css">
	.st0{fill:#A0A0A0;}
</style>
<g>
	<g>
		<path class="st0" d="M507.3,210.9c-0.8-4.1-4.7-6.7-8.8-5.9c-4.1,0.8-6.7,4.7-5.9,8.8c2.5,12.7,3.9,25.6,4.3,38.5h-66.1
			c16.8-24.3,22.3-30,21.8-40.6c-0.2-26.1-32.8-38.5-50.1-18.6c-2-12.3-4.5-24.4-7.5-36c24.6-4.1,48.4-9.2,71-15.4
			c6.9,12.2,12.8,25,17.4,38.2c1.4,3.9,5.6,5.9,9.6,4.6c3.9-1.4,6-5.7,4.6-9.6c-25.9-73.7-86.1-134.6-164.9-159.2
			C291.6,2.9,256.3,4.1,256.3,4.1c-242.5,0-352.9,312.4-152,461.3c1.4,1,0.5,0.4,2.2,1.6c0.1,0.1,0.8,0.6,0.8,0.6
			c1,0.7,2,1.4,3.3,2.3c36.1,25.1,79.8,38.7,85.6,37.9c3.8-0.6,6.4-3.8,6.4-7.4c0-6.7,0-55,0-61.7c0-21.9-5.9-47-19.9-66.8
			C70.6,209.8,75,217.9,75,211.9c0-9.7,9.7-16.2,18.5-12.7c4.9,1.9,5.6,4.1,15.3,18c0,0,32.2,46.5,32.4,46.8c0,0,0,0,0,0
			c0.1,0.2,43.9,63.5,44.1,63.7c0.7,0.9,17.1,22.1,45.7,22.1c6.2,0,44.5,0,50.6,0c28.6,0,45-21.2,45.7-22.1c0.1-0.1,0.2-0.2,0.3-0.4
			c93.5-135.2,86.4-126.2,91.5-128.2c12.5-4.9,23.7,9.4,16.1,20.4c-0.2,0.2-107.8,155.8-107.9,156c-5.2,8.1-17.4,30.6-17.4,63.1
			c0,6.7,0,54.7,0,61.7c0,0.3,0,0.5,0,0.8c0,0.1,0.1,0.6,0.1,0.8c0,0.1,0.1,0.5,0.2,0.8c0.1,0.2,0.2,0.5,0.3,0.8
			c0.1,0.2,0.2,0.4,0.4,0.7c0.1,0.2,0.2,0.4,0.5,0.7c0.2,0.2,0.3,0.4,0.6,0.7c0.1,0.1,0.4,0.4,0.6,0.5c0.2,0.1,0.1,0.1,0.1,0.1
			c0.7,0.5,1.5,0.9,2.1,1.1c1,0.3,2.1,0.5,3.2,0.3c0.2,0,0.6-0.1,0.9-0.2c28.7-6.6,64.5-23,94.1-46.1c3.3-2.5,3.8-7.2,1.3-10.5
			c-2.5-3.3-7.3-3.9-10.5-1.3c-23,17.9-49.7,32.1-79.2,40.8v-2.5c9.4-8,17.8-17.3,25.2-27.2l0,0c18.3-24.1,32-55,40.8-83.9
			c23.2,3.8,45.6,8.5,67,14.2c-8.3,12.7-17.8,24.6-28.3,35.6c-2.9,3-2.8,7.7,0.2,10.6c3,2.9,7.7,2.8,10.6-0.2
			C498.2,377.3,523.2,293,507.3,210.9z M263.8,19.5c56.5,5.2,94.6,69.1,112.2,125.4c-36.1,5.1-73.8,7.9-112.2,8.3V19.5z
			 M170.5,380.6c0,0,0.1,0.1,0.1,0.1l1.4,2.1c18.4,26.6,15.6,59,15.6,84.8c-24.2-25.1-40.7-59.6-51.1-92.7
			c9.1-1.3,18.2-2.4,27.5-3.4L170.5,380.6z M154.5,357.4c-7.4,0.9-14.7,1.8-22,2.9c-4-15.3-7.2-31.5-9.3-48.1L154.5,357.4z
			 M187.7,488.1v2.5C133,474.4,85.8,439,54.6,391.3c21.4-5.7,43.7-10.5,67-14.2C133.9,417.7,155.4,460.6,187.7,488.1z M105.7,286.9
			c1.7,27,5.9,52.7,11.8,75.6c-24.7,4.1-48.4,9.2-71,15.4c-19.2-34-29.7-71.9-30.9-110.7h76.5L105.7,286.9z M110.1,193.1
			c-13.4-15.4-38-12.2-47.1,6l6.7,3.3l-6.8-3.2c-4.3,8.7-4.1,19.8,2.1,28.9l16.8,24.2H15.7c1.2-39.4,11.8-77.2,30.8-110.7
			c22.6,6.2,46.5,11.4,71.1,15.4C114.5,169.1,112,181.3,110.1,193.1z M54.6,128.3C86.9,79.1,136.2,43.6,191.9,28
			c-19,14.9-34.4,35.5-46.2,56.8c-0.4,0.7-0.8,1.4-1.1,2c-0.4,0.7-0.7,1.4-1.1,2.1c-0.3,0.6-0.6,1.1-0.9,1.7
			c-0.4,0.8-0.9,1.7-1.3,2.5c-0.2,0.4-0.4,0.8-0.6,1.2c-0.5,1-1,2-1.5,3.1c-0.1,0.2-0.2,0.4-0.3,0.6c-6.7,13.8-12.5,28.8-17.3,44.7
			C98.5,138.8,76,134,54.6,128.3z M248.8,19.5v133.6c-38.3-0.3-76.1-3.1-112.2-8.3C153.8,89.6,191.2,25.2,248.8,19.5z M122.7,211
			c2.2-18.7,5.6-35.9,9.7-51.7c37.4,5.4,76.6,8.4,116.3,8.7v19.5c-32.5,2.7-58.2,30.9-56.7,64.7h-40.8L122.7,211z M207.3,327.6
			C207.3,327.6,207.3,327.6,207.3,327.6c-9.9-6.5-9-7.4-45.6-60.3h33c7.5,25,29.7,41.9,54.1,44v23.6h0
			C231,334.9,220.9,336.6,207.3,327.6z M210.6,267.5c-12.2-29.2,7.3-65.1,45.4-65.1c30.8,1.3,52.5,31.6,42.9,61.5
			C285.4,305.5,227.1,307.8,210.6,267.5z M314.4,319.9c-3.4,3.7-15,15-32.8,15h-17.8v-24.2c22.8-3.5,42.8-20.1,49.8-43.4h37.4
			C312.7,322.6,315.5,318.6,314.4,319.9z M361.3,252.3h-45.2c1.5-32.1-21.7-59.4-52.3-64.2v-20c39.8-0.3,78.9-3.3,116.3-8.7
			c4.3,16.5,7.6,33.8,9.7,51.6L361.3,252.3z M320.7,28c56.8,15.9,105.8,52.2,137.2,100.4c-21.4,5.7-43.8,10.4-67,14.2
			C378.1,100.4,355.5,55.4,320.7,28z M335.1,455.9L335.1,455.9c-3.2,4.1-6.6,8-10.2,11.7v-28.8c0-37.2,16.3-56.9,23.5-67.3
			c9.3,1,18.5,2.2,27.5,3.4C367,403.6,353.9,432,335.1,455.9z M380.1,360.3c-7.3-1.1-14.6-2-22-2.9l31.3-45.3
			C387.4,328.3,384.3,344.3,380.1,360.3z M466,378c-22.6-6.2-46.3-11.4-71-15.4c6.4-24.8,10.3-50.3,11.8-75.6l13.6-19.6h76.5
			C495.8,305.2,485.6,343.3,466,378z"/>
	</g>
</g>
</svg>
