<?xml version="1.0" encoding="utf-8"?>
<!-- Generator: Adobe Illustrator 21.1.0, SVG Export Plug-In . SVG Version: 6.00 Build 0)  -->
<svg version="1.1" id="Capa_1" xmlns="http://www.w3.org/2000/svg" xmlns:xlink="http://www.w3.org/1999/xlink" x="0px" y="0px"
	 viewBox="0 0 512 512" style="enable-background:new 0 0 512 512;" xml:space="preserve">
<style type="text/css">
	.st0{fill:#A0A0A0;}
</style>
<g>
	<g>
		<path class="st0" d="M506.4,417.9v-46.4c0-9.5-6.8-17.4-15.8-19.1v-40.5c0-4.1-3.4-7.5-7.5-7.5s-7.5,3.4-7.5,7.5V352h-44.6
			c2-14.4-11.6-28.9-27.9-24.1c-1.9,0.6-1.6,0.5-6.3,2.5v-91.1h78.7v37.5c0,4.1,3.4,7.5,7.5,7.5s7.5-3.4,7.5-7.5v-37.5
			c4.1-0.1,7.3-3.4,7.3-7.5c0-4.1-3.3-7.4-7.3-7.5c0-11.2-0.9-16.3,4.1-21.7c8.2-8.9,17.3-16.1,17.3-34.8c0-0.3,0-130.9,0-142.8
			c0-10.8-8.7-19.5-19.5-19.5H447c-3.9-3.5-9-5.6-14.6-5.6c-5.6,0-10.7,2.1-14.6,5.6h-46.4c-9.5,0-17.4,6.8-19.1,15.8H239.3
			c0-10.2-15-10.3-15,0c-19.6,0-15.9,1.2-31.6-13.2c-0.1-0.1-0.2-0.2-0.4-0.3C188.7,4.9,180.7,0,167.9,0L108,0c-0.3,0-0.5,0-0.8,0
			C89.9,0,42,0,25.1,0C14.3,0,5.6,8.7,5.6,19.5V65C2.1,68.8,0,73.9,0,79.5s2.1,10.7,5.6,14.6v46.4c0,9.5,6.8,17.4,15.8,19.1v109.7
			c-11.3,0-11.3,15,0,15v14.9c0,14.7-21.4,16-21.4,44.9L0,404c0,0.3,0,0.5,0,0.8c0,17.3,0,65.2,0,82.1c0,10.8,8.7,19.5,19.5,19.5H65
			c8.3,7.4,20.8,7.4,29.1,0h46.4c9.5,0,17.4-6.8,19.1-15.8h116.7c0.9,8.9,14,8.9,14.9,0c7.6,0,12.7-0.9,18.1,4.1
			c8.3,7.6,15.4,17.3,34.8,17.3c0.3,0,130.9,0,142.8,0c10.8,0,19.5-8.7,19.5-19.5V447C513.9,438.7,513.8,426.2,506.4,417.9z
			 M486.9,367c2.5,0,4.5,2,4.5,4.5v14.1c-3.1-2.1-6.7-3.4-10.7-3.7c-0.5,0-1-0.1-1.5-0.1h-76.5c0.2-0.1,19.3-14.7,19.5-14.8
			C429.4,367,480.2,367,486.9,367z M492.5,20.6c2.5,0,4.5,2,4.5,4.5v13.2c-4.2-1.4-9.1-1.6-13.8,0c0-5.4,0.1-7.2-0.5-10.2
			c-0.2-1-0.5-1.7-0.5-1.7c-0.6-2-1.6-4-2.8-5.7C479.5,20.6,492.5,20.6,492.5,20.6z M371.5,20.6h14.1c-2.4,3.7-3.7,7.7-3.7,12.2
			v76.5c-0.1-0.1-14.7-19.3-14.8-19.5c0-7.2,0-58,0-64.8C367,22.6,369,20.6,371.5,20.6z M352.5,96.7c3.8,2.2,29.6,38.8,32.5,40.9
			c0.7,0.5,1.2,0.8,2.1,1.1c1.5,0.5,3.1,0.5,4.6,0c3.2-1,5.2-4,5.2-7.1c0-105.5-0.1-99.3,0.3-100.8c1-3.3,4.4-5.4,7.9-4.7
			c3.1,0.6,5.5,3.4,5.5,6.7v85.9c0,4.1,3.4,7.5,7.5,7.5s7.5-3.4,7.5-7.5V42.1c0.1-10.7-0.2-20,0.2-21.8c0.1-0.5,0.3-0.9,0.5-1.4
			c2.2-4.6,8.4-5.4,11.7-1.3c0.4,0.5,0.8,1.2,1,1.9c0.3,0.8,0.4,1.6,0.4,2.4c0,10.4,0,87,0,96.8c0,4.1,3.4,7.5,7.5,7.5
			s7.5-3.4,7.5-7.5V32.8c0-3.8,3.1-6.9,6.9-6.9s6.9,3.1,6.9,6.9v24.1c0,7,0,56,0,61.8c0,4.1,3.4,7.5,7.5,7.5s7.5-3.4,7.5-7.5V59
			c0-3.8,3.1-6.9,6.9-6.9c3.8,0,6.9,3.1,6.9,6.9c0,50.1,0,98.9,0,108.9c0,8-2.7,12.7-4.4,14.8c-18.1,19.7-17,19.5-17,41.6h-78.7
			c0-26.5-2.5-26.8-16.8-41c0,0-0.1-0.1-0.1-0.1c-10.6-10.5-16.7-33.3-37.2-77.6c-0.2-0.4-0.3-0.8-0.4-1.2
			C340.7,98.8,347.1,93.6,352.5,96.7z M239.3,36.4H352v44.6c-16.3-2.2-30.4,14.5-23,30.9l1.4,3.3h-91.2L239.3,36.4L239.3,36.4z
			 M25.1,15h13.2c-1.4,4.2-1.5,9.1,0,13.8c-4.7,0-7.9-0.3-11.9,1c0,0,0,0,0,0c-2,0.6-4,1.6-5.7,2.8v-13h0C20.6,17,22.6,15,25.1,15z
			 M19.9,86.1c-0.1,0-0.5-0.2-0.6-0.2c-0.2-0.1-0.3-0.1-0.5-0.2c-0.4-0.2-0.8-0.5-1.2-0.8c-3.6-2.8-3.4-8.2,0.1-10.8
			c0.5-0.4,1.2-0.8,1.9-1c0.8-0.3,1.6-0.4,2.4-0.4c11,0,85,0,96.8,0c4.1,0,7.5-3.4,7.5-7.5s-3.4-7.5-7.5-7.5c-10.8,0-75.1,0-85.9,0
			c-3.8,0-6.9-3.1-6.9-6.9s3.1-6.9,6.9-6.9c9.7,0,72.7,0,85.9,0c4.1,0,7.5-3.4,7.5-7.5s-3.4-7.5-7.5-7.5c-7.5,0-52.2,0-59.7,0
			c-3.8,0-6.9-3.1-6.9-6.9c0-3.8,3.1-6.9,6.9-6.9c94.3,0-3.4,0.1,108.9,0c8,0,12.6,2.7,14.8,4.4c19.6,18,19.4,17,41.6,17v78.7
			c-26.1,0-26.4,2.2-41,16.9c-10.5,10.6-33.3,16.7-77.6,37.2c-6.7,3.1-15.1-6-5.4-13.4l35.9-27.3c5.7-4.3,2.6-13.5-4.5-13.5H32.8
			c-3.8,0-6.9-3.1-6.9-6.8c0-3.8,3.1-6.9,6.9-6.9h85.9c4.1,0,7.5-3.4,7.5-7.5s-3.4-7.5-7.5-7.5c-86.7,0-75.8,0-76.7,0
			c-2.5,0-17.5,0-20,0c-0.5,0-0.9,0-1.4-0.1C20.5,86.3,20,86.2,19.9,86.1z M102.7,185c0.8,0,1.6,0,2.3-0.1c4-0.4,6.4-1.7,10.1-3.3
			v87.8H36.4V160h44.5C79.2,172.5,89.2,185,102.7,185z M20.6,140.5v-14.1c7.7,5.1,7,3.7,88.7,3.7c-0.2,0.1-19.3,14.7-19.5,14.8h-61
			h-3.8C22.6,145,20.6,143,20.6,140.5z M19.5,491.4c-2.5,0-4.5-2-4.5-4.5v-13.2c4.3,1.4,9.2,1.5,13.8,0c0,4.9-0.7,11,3.7,17.7
			L19.5,491.4L19.5,491.4z M145,486.9c0,2.5-2,4.5-4.5,4.5h-14c0,0,0,0,0-0.1c0.2-0.4,0.7-1.1,1-1.7c0.3-0.5,0.6-1.2,0.9-1.8
			c0.3-0.8,0.6-1.4,0.9-2.3c0.1-0.4,0.3-1.2,0.5-1.9c0.1-0.5,0.2-1.3,0.3-2c0.1-0.9,0.2-1.7,0.2-2.5v-76.5
			c0.2,0.3,14.6,19.2,14.8,19.5C145,429.4,145,480.2,145,486.9z M128.6,375.9c-1.9-2.6-5.3-3.6-8.4-2.6c-3,1-5.1,3.9-5.1,7.1
			c0,107.7,0.8,100.8-2,103.6c-1.3,1.3-3,2-4.8,2c-3.8,0-6.9-3.1-6.9-6.9v-85.9c0-4.1-3.4-7.5-7.5-7.5s-7.5,3.4-7.5,7.5
			c0,7.8,0.2,97.1-0.3,98.8c-0.1,0.4-0.3,0.8-0.4,1.1c-2.3,4.6-8.5,5.2-11.6,1.2c-0.4-0.5-0.8-1.1-1-1.9c-0.3-0.8-0.4-1.6-0.4-2.4
			c0-10.4,0-87,0-96.8c0-4.1-3.4-7.5-7.5-7.5s-7.5,3.4-7.5,7.5v85.9c0,3.8-3.1,6.9-6.9,6.9s-6.9-3.1-6.9-6.9c0-9.9,0-77.8,0-85.9
			c0-4.1-3.4-7.5-7.5-7.5s-7.5,3.4-7.5,7.5V453c0,3.8-3.1,6.9-6.9,6.9c-3.8,0-6.9-3.1-6.9-6.9c0-117.2,0.1,22,0-108.9
			c0-8,2.7-12.7,4.4-14.8c18.4-20,17-18.9,17-44.9h78.7c0,10.6-1.5,26.2,7.8,35.3c19.8,19.6,12.6,9.4,46.3,86.6
			c1.8,4,0.1,7.5-3.2,9.2c0,0,0,0,0,0c-0.9,0.5-2.2,0.9-3.8,0.8C157.8,415.7,157.6,414,128.6,375.9z M276.3,381.9h-37.2
			c-4.1,0-7.5,3.4-7.5,7.5c0,4.1,3.4,7.5,7.5,7.5h37.2v78.7H160v-44.6c15.5,2.2,29.3-13.1,23.8-28.9c-0.4-1.1-0.5-1.2-2.2-5.3h22.5
			c4.1,0,7.5-3.4,7.5-7.5c0-4.1-3.4-7.5-7.5-7.5H175c-20-45.7-22.5-54.2-32.4-63.8c-0.5-0.5-9.1-9-9.1-9c-4.4-4.3-3.3-18-3.3-24.7
			c12.5,0,10.8-15,1.4-15h-1.4V175c45.8-20,54.2-22.5,63.8-32.4c12.4-12.5,9.7-12.5,30.5-12.5c1.7,7.8,12.9,7.8,14.6,0H337
			c20,45.8,22.5,54.1,32.4,63.8c0.3,0.3,9.1,9,9.1,9c4,4,3.3,15.5,3.3,21.4c-12.5,0-10.8,15-1.4,15h1.4V337l-46.5,20.3
			c0,0-0.1,0-0.1,0.1c-5,2.3-12.3,7.1-17.2,12c-0.3,0.3-9,9.1-9,9.1c-3.6,3.7-13.3,3.3-17.7,3.3v-1.4
			C291.3,371.2,276.3,369.3,276.3,381.9z M486.9,497h-13.2c1.4-4.3,1.5-9.2,0-13.8c6.9,0,10.9,0.5,17.7-3.7v13h0
			C491.4,495,489.4,497,486.9,497z M493.1,438.7c-1.8,0.9-2.3,0.7-13.9,0.7c-7.8,0-70,0-85.9,0c-4.1,0-7.5,3.4-7.5,7.5
			s3.4,7.5,7.5,7.5h85.9c3.8,0,6.9,3.1,6.9,6.9c0,3.8-3.1,6.9-6.9,6.9h-24.1c-7,0-56,0-61.8,0c-4.1,0-7.5,3.4-7.5,7.5
			s3.4,7.5,7.5,7.5H453c3.8,0,6.9,3.1,6.9,6.9c0,3.8-3.1,6.9-6.9,6.9c0,0-108.9,0-108.9,0c-8,0-12.6-2.7-14.8-4.4
			c-9.6-8.8-16.5-17-30-17h-8v-78.7c34.8,0,27.1-14.6,50.2-25.8c70.5-30.8,66.9-30.1,70.5-28.5c3.1,1.5,5.3,5.3,3.8,9
			c-1.2,3-0.1,1.6-39.8,31.8c-5.7,4.3-2.6,13.5,4.5,13.5c21.5,0,87.2,0,98.7,0c3.8,0,6.9,3.1,6.9,6.8c0,3.8-3.1,6.9-6.9,6.9h-85.9
			c-4.1,0-7.5,3.4-7.5,7.5s3.4,7.5,7.5,7.5c104.6,0,97.7-0.3,99.7,0.7C498.4,428.8,498.3,436.2,493.1,438.7z"/>
	</g>
</g>
</svg>
